Project 1
…
pl_tidy %>% distinct() %>% str()

## tibble [450 × 4] (S3: tbl_df/tbl/data.frame)
##  $ city      : chr [1:450] "New York" "New York" "New York" "New York" ...
##  $ force_size: num [1:450] 32300 32300 32300 32300 32300 ...
##  $ race      : chr [1:450] "all" "white" "non_white" "black" ...
##  $ perc_in   : num [1:450] 0.618 0.446 0.764 0.771 0.763 ...

m15f_tidy %>% anti_join(pl_tidy, by = "city") %>% distinct()

## # A tibble: 112 x 5
##    city          state     change year  total_murders
##    <chr>         <chr>      <dbl> <chr>         <dbl>
##  1 Kansas City   Missouri      31 2014             78
##  2 Kansas City   Missouri      31 2015            109
##  3 Nashville     Tennessee     31 2014             41
##  4 Nashville     Tennessee     31 2015             72
##  5 Oklahoma City Oklahoma      28 2014             45
##  6 Oklahoma City Oklahoma      28 2015             73
##  7 Louisville    Kentucky      25 2014             56
##  8 Louisville    Kentucky      25 2015             81
##  9 Orlando       Florida       17 2014             15
## 10 Orlando       Florida       17 2015             32
## # … with 102 more rows
…
m_pl %>% filter(between(force_size, 2000, 3000))

## # A tibble: 72 x 8
##    city      state    change year  total_murders force_size race      perc_in
##    <chr>     <chr>     <dbl> <chr>         <dbl>      <dbl> <chr>       <dbl>
##  1 Baltimore Maryland    133 2014            211       2800 all         0.257
##  2 Baltimore Maryland    133 2014            211       2800 white       0.133
##  3 Baltimore Maryland    133 2014            211       2800 non_white   0.362
##  4 Baltimore Maryland    133 2014            211       2800 black       0.391
##  5 Baltimore Maryland    133 2014            211       2800 hispanic   NA    
##  6 Baltimore Maryland    133 2014            211       2800 asian      NA    
##  7 Baltimore Maryland    133 2015            344       2800 all         0.257
##  8 Baltimore Maryland    133 2015            344       2800 white       0.133
##  9 Baltimore Maryland    133 2015            344       2800 non_white   0.362
## 10 Baltimore Maryland    133 2015            344       2800 black       0.391
## # … with 62 more rows

m_pl %>% arrange(desc(city), change)

## # A tibble: 324 x 8
##    city       state change year  total_murders force_size race      perc_in
##    <chr>      <chr>  <dbl> <chr>         <dbl>      <dbl> <chr>       <dbl>
##  1 Washington D.C.      57 2014            105       9340 all        0.116 
##  2 Washington D.C.      57 2014            105       9340 white      0.0568
##  3 Washington D.C.      57 2014            105       9340 non_white  0.157 
##  4 Washington D.C.      57 2014            105       9340 black      0.170 
##  5 Washington D.C.      57 2014            105       9340 hispanic   0.0899
##  6 Washington D.C.      57 2014            105       9340 asian      0.231 
##  7 Washington D.C.      57 2015            162       9340 all        0.116 
##  8 Washington D.C.      57 2015            162       9340 white      0.0568
##  9 Washington D.C.      57 2015            162       9340 non_white  0.157 
## 10 Washington D.C.      57 2015            162       9340 black      0.170 
## # … with 314 more rows

m_pl %>% select(city, total_murders, race, perc_in)

## # A tibble: 324 x 4
##    city      total_murders race      perc_in
##    <chr>             <dbl> <chr>       <dbl>
##  1 Baltimore           211 all         0.257
##  2 Baltimore           211 white       0.133
##  3 Baltimore           211 non_white   0.362
##  4 Baltimore           211 black       0.391
##  5 Baltimore           211 hispanic   NA    
##  6 Baltimore           211 asian      NA    
##  7 Baltimore           344 all         0.257
##  8 Baltimore           344 white       0.133
##  9 Baltimore           344 non_white   0.362
## 10 Baltimore           344 black       0.391
## # … with 314 more rows

m_pl %>% select(city, total_murders)

## # A tibble: 324 x 2
##    city      total_murders
##    <chr>             <dbl>
##  1 Baltimore           211
##  2 Baltimore           211
##  3 Baltimore           211
##  4 Baltimore           211
##  5 Baltimore           211
##  6 Baltimore           211
##  7 Baltimore           344
##  8 Baltimore           344
##  9 Baltimore           344
## 10 Baltimore           344
## # … with 314 more rows

m_pl %>% mutate(murder_pctile = ntile(total_murders, 100)) %>% 
    arrange(desc(murder_pctile))

## # A tibble: 324 x 9
##    city  state change year  total_murders force_size race  perc_in murder_pctile
##    <chr> <chr>  <dbl> <chr>         <dbl>      <dbl> <chr>   <dbl>         <int>
##  1 Chic… Illi…     67 2015            478      12120 black   0.897           100
##  2 Chic… Illi…     67 2015            478      12120 hisp…   0.840           100
##  3 Chic… Illi…     67 2015            478      12120 asian   0.967           100
##  4 Chic… Illi…     67 2015            478      12120 all     0.875            99
##  5 Chic… Illi…     67 2015            478      12120 white   0.872            99
##  6 Chic… Illi…     67 2015            478      12120 non_…   0.877            99
##  7 Chic… Illi…     67 2014            411      12120 black   0.897            98
##  8 Chic… Illi…     67 2014            411      12120 hisp…   0.840            98
##  9 Chic… Illi…     67 2014            411      12120 asian   0.967            98
## 10 Chic… Illi…     67 2014            411      12120 all     0.875            97
## # … with 314 more rows

m_pl %>% mutate(murder_pctile = ntile(total_murders, 100)) %>% 
    arrange(murder_pctile)

## # A tibble: 324 x 9
##    city  state change year  total_murders force_size race  perc_in murder_pctile
##    <chr> <chr>  <dbl> <chr>         <dbl>      <dbl> <chr>   <dbl>         <int>
##  1 Seat… Wash…     -3 2015             23       1445 all     0.118             1
##  2 Seat… Wash…     -3 2015             23       1445 white   0.116             1
##  3 Seat… Wash…     -3 2015             23       1445 non_…   0.122             1
##  4 Seat… Wash…     -3 2015             23       1445 black   0.188             1
##  5 Seat… Wash…     -3 2014             26       1445 all     0.118             2
##  6 Seat… Wash…     -3 2014             26       1445 white   0.116             2
##  7 Seat… Wash…     -3 2015             23       1445 hisp…   0                 2
##  8 Seat… Wash…     -3 2015             23       1445 asian  NA                 2
##  9 Seat… Wash…     -3 2014             26       1445 non_…   0.122             3
## 10 Seat… Wash…     -3 2014             26       1445 black   0.188             3
## # … with 314 more rows

m_pl %>% mutate(force_pctile = ntile(force_size, 100)) %>% arrange(force_pctile)

## # A tibble: 324 x 9
##    city   state change year  total_murders force_size race  perc_in force_pctile
##    <chr>  <chr>  <dbl> <chr>         <dbl>      <dbl> <chr>   <dbl>        <int>
##  1 St. L… Miss…     29 2014            159        950 all     0.589            1
##  2 St. L… Miss…     29 2014            159        950 white   0.538            1
##  3 St. L… Miss…     29 2014            159        950 non_…   0.671            1
##  4 St. L… Miss…     29 2014            159        950 black   0.683            1
##  5 St. L… Miss…     29 2014            159        950 hisp…  NA                2
##  6 St. L… Miss…     29 2014            159        950 asian  NA                2
##  7 St. L… Miss…     29 2015            188        950 all     0.589            2
##  8 St. L… Miss…     29 2015            188        950 white   0.538            2
##  9 St. L… Miss…     29 2015            188        950 non_…   0.671            3
## 10 St. L… Miss…     29 2015            188        950 black   0.683            3
## # … with 314 more rows

m_pl %>% summarise_all(n_distinct)

## # A tibble: 1 x 8
##    city state change  year total_murders force_size  race perc_in
##   <int> <int>  <int> <int>         <int>      <int> <int>   <int>
## 1    27    21     23     2            49         27     6     130

m_pl %>% group_by(state) %>% summarise(mean_murders = mean(total_murders, 
    na.rm = T))

## # A tibble: 21 x 2
##    state      mean_murders
##    <chr>             <dbl>
##  1 Arizona           113  
##  2 California        118. 
##  3 Colorado           42  
##  4 D.C.              134. 
##  5 Florida            78  
##  6 Georgia            93.5
##  7 Illinois          444. 
##  8 Indiana           142  
##  9 Louisiana         157  
## 10 Maryland          278. 
## # … with 11 more rows

m_pl %>% group_by(city) %>% summarise(sd_murders = sd(total_murders, 
    na.rm = T))

## # A tibble: 27 x 2
##    city       sd_murders
##    <chr>           <dbl>
##  1 Atlanta         0.522
##  2 Baltimore      69.5  
##  3 Boston          7.83 
##  4 Chicago        35.0  
##  5 Cincinnati      3.13 
##  6 Cleveland      29.8  
##  7 Dallas         10.4  
##  8 Denver         11.5  
##  9 Detroit         1.57 
## 10 Houston        31.9  
## # … with 17 more rows

m_pl %>% summarize(min_force_size = min(force_size, na.rm = T))

## # A tibble: 1 x 1
##   min_force_size
##            <dbl>
## 1            950

m_pl %>% group_by(state, race) %>% summarise(mean_perc_in = mean(perc_in, 
    na.rm = T))

## # A tibble: 126 x 3
## # Groups:   state [21]
##    state      race      mean_perc_in
##    <chr>      <chr>            <dbl>
##  1 Arizona    all              0.312
##  2 Arizona    asian          NaN    
##  3 Arizona    black            0.522
##  4 Arizona    hispanic         0.428
##  5 Arizona    non_white        0.427
##  6 Arizona    white            0.271
##  7 California all              0.302
##  8 California asian            0.436
##  9 California black            0.371
## 10 California hispanic         0.256
## # … with 116 more rows

m_pl %>% group_by(state) %>% summarise(max_change = max(change, 
    na.rm = T)) %>% arrange(desc(max_change))

## # A tibble: 21 x 2
##    state        max_change
##    <chr>             <dbl>
##  1 Maryland            133
##  2 Illinois             67
##  3 Texas                61
##  4 D.C.                 57
##  5 Ohio                 57
##  6 Wisconsin            55
##  7 Pennsylvania         32
##  8 Missouri             29
##  9 California           22
## 10 Colorado             22
## # … with 11 more rows

m_pl %>% group_by(state) %>% summarise(n_distinct(city))

## # A tibble: 21 x 2
##    state      `n_distinct(city)`
##    <chr>                   <int>
##  1 Arizona                     1
##  2 California                  3
##  3 Colorado                    1
##  4 D.C.                        1
##  5 Florida                     1
##  6 Georgia                     1
##  7 Illinois                    1
##  8 Indiana                     1
##  9 Louisiana                   1
## 10 Maryland                    1
## # … with 11 more rows
…
