My Project 2
…
sapply(m_pl, mode)

##          city         state        change          year total_murders 
##   "character"   "character"     "numeric"   "character"     "numeric" 
##    force_size          race       perc_in 
##     "numeric"   "character"     "numeric"

m_pl %>% distinct(state)

## # A tibble: 21 x 1
##    state       
##    <chr>       
##  1 Maryland    
##  2 Illinois    
##  3 Texas       
##  4 Ohio        
##  5 D.C.        
##  6 Wisconsin   
##  7 Pennsylvania
##  8 Missouri    
##  9 Colorado    
## 10 California  
## # … with 11 more rows
…
